0	101.000000	0	5.31474	4.92242e-7		
0.025	101.000000	0	5.31834	0.00573643
0.05	101.000000	0	5.32711	0.0106877
0.075	101.000000	18	5.3367	0.0154842
0.1	101.000000	264	5.3439	0.0168133
0.125	100.390625	1586	5.35375	0.0221776
0.15	98.359375	5040	5.364	0.0258256
0.175	96.734375	10550	5.37607	0.0293889
0.2	93.5703125	18254	5.39262	0.0356454
0.25	79.09375	42302	5.40513	0.037248
0.275	73.75000	55017	5.41907	0.0466356
0.3	63.1640625	71295	5.44463	0.0521352
0.4	29.9375		136465	5.54384	0.0919683
0.5	20.09375	206610	5.59947	0.0882016